{
    "BY":[
          {"_id":626064,"name":"Lyozna","coord":{"lon":30.795561,"lat":55.02486}},
          {"_id":10722858,"name":"Svetlogorsk","coord":{"lon":29.733333,"lat":52.633333}},
          {"_id":627962,"name":"Guraki","coord":{"lon":30.883612,"lat":54.572777}},
          {"_id":619258,"name":"Zalozy","coord":{"lon":25.583332,"lat":53.333332}},
          {"_id":624784,"name":"Navapolatsk","coord":{"lon":28.642441,"lat":55.536282}},
          {"_id":629454,"name":"Byaroza","coord":{"lon":24.9786,"lat":52.531399}},
          {"_id":630429,"name":"Baranavichy","coord":{"lon":26.013901,"lat":53.132702}},
          {"_id":8020218,"name":"Malinovka","coord":{"lon":27.437401,"lat":53.857899}},
          {"_id":627318,"name":"Navinki","coord":{"lon":27.549999,"lat":53.933334}},
          {"_id":625144,"name":"Minsk","coord":{"lon":27.566668,"lat":53.900002}},
          {"_id":625504,"name":"Malyavshchina","coord":{"lon":27.6,"lat":53.916668}},
          {"_id":627332,"name":"Khutor Apolinarovo","coord":{"lon":27.533333,"lat":53.950001}},
          {"_id":619034,"name":"Zatsen’","coord":{"lon":27.5,"lat":53.966667}},
          {"_id":628816,"name":"Dubovlyany","coord":{"lon":27.549999,"lat":54}},
          {"_id":623802,"name":"Papernya","coord":{"lon":27.566668,"lat":54.033333}},
          {"_id":625143,"name":"Horad Minsk","coord":{"lon":27.566668,"lat":53.900002}},
          {"_id":624147,"name":"Ol’shëvo","coord":{"lon":27.516666,"lat":53.916668}},
          {"_id":629752,"name":"Baravaya","coord":{"lon":27.466667,"lat":53.950001}},
          {"_id":626462,"name":"Kruptsy","coord":{"lon":27.5,"lat":53.933334}},
          {"_id":622069,"name":"Sheypichi","coord":{"lon":27.583332,"lat":53.866669}},
          {"_id":621275,"name":"Stolovaya","coord":{"lon":27.566668,"lat":53.866669}},
          {"_id":621667,"name":"Sokolyanka","coord":{"lon":27.583332,"lat":53.866669}},
          {"_id":626861,"name":"Korzyuki","coord":{"lon":27.6,"lat":53.833332}},
          {"_id":628684,"name":"Dvorishche","coord":{"lon":27.6,"lat":53.849998}},
          {"_id":630202,"name":"Berezinka","coord":{"lon":28.016666,"lat":53.016666}},
          {"_id":619955,"name":"Vostochnyy","coord":{"lon":27.583332,"lat":53.916668}},
          {"_id":623869,"name":"Ozerishche","coord":{"lon":27.700001,"lat":53.933334}},
          {"_id":629962,"name":"Slepnya","coord":{"lon":27.65,"lat":53.933334}},
          {"_id":620453,"name":"Valer’yanovo","coord":{"lon":27.666668,"lat":53.966667}},
          {"_id":620553,"name":"Uruch’ye","coord":{"lon":27.683332,"lat":53.950001}}
          ]
}
