{
    "GB":[
          {"_id":2643743,"name":"London","coord":{"lon":-0.12574,"lat":51.50853}},
          {"_id":7290621,"name":"Oxford District","coord":{"lon":-1.23854,"lat":51.753151}},
          {"_id":2643123,"name":"Manchester","coord":{"lon":-2.23743,"lat":53.480949}},
          {"_id":2633352,"name":"York","coord":{"lon":-1.08271,"lat":53.95763}},
          {"_id":2641639,"name":"Newham","coord":{"lon":0.03333,"lat":51.51667}}
          ]
}
